animint2 GSOC Application
…
b5 <- read_tsv("b5.tsv",
               show_col_types = FALSE)
go_away <- c("race", "age", "engnat", "gender", "hand", "source")
b5c <- b5 |> select(-any_of(go_away))

How many countries are there in this dataset, anyway? And what about the number of responses per country? 
"(nu" is equivalent to NA.

num_country <- b5c |> count(country, sort = TRUE) |>
  filter(!(country == "(nu"))
num_country

# A tibble: 157 × 2
   country     n
   <chr>   <int>
 1 US       8753
 2 GB       1531
 3 IN       1464
 4 AU        974
 5 CA        924
 6 PH        649
 7 IT        277
 8 MY        247
 9 PK        222
10 DE        191
# … with 147 more rows
…
# generate table of sumscores
sumscores <- plus_id |> 
  summarize(country = country,
         extraversion = sum(c_across(3:12)), 
         neuroticism = sum(c_across(13:22)), 
         agreeableness = sum(c_across(23:31)), 
         conscientiousness = sum(c_across(33:42)), 
         openness = sum(c_across(43:52)),
         .groups = "keep")

And now we have our final dataset:

sumscores

# A tibble: 14,295 × 7
# Groups:   id [14,295]
      id country extraversion neuroticism agreeableness conscientiousn…¹ openn…²
   <int> <chr>          <dbl>       <dbl>         <dbl>            <dbl>   <dbl>
 1     1 US                29          19            31               31      56
 2     2 US                28          28            30               27      51
 3     3 US                26          34            35               26      45
 4     4 US                28          33            32               39      59
 5     5 US                29          28            32               31      55
 6     6 IN                32          20            29               29      59
 7     7 US                30          36            32               34      64
 8     8 US                33          30            25               31      62
 9     9 IN                30          31            33               34      61
10    10 US                30          27            31               32      58
# … with 14,285 more rows, and abbreviated variable names ¹​conscientiousness,
#   ²​openness
…
