animint2 GSOC Examination
…
b5 <- read_tsv("b5.tsv",
               show_col_types = FALSE)
go_away <- c("race", "age", "engnat", "gender", "hand", "source")
b5c <- b5 |> select(-any_of(go_away))

How many countries are there in this dataset, anyway? And what about the number of responses per country? 
"(nu" is equivalent to NA.

num_country <- b5c |> count(country, sort = TRUE) |>
  filter(!(country == "(nu"))
num_country

# A tibble: 157 × 2
   country     n
   <chr>   <int>
 1 US       8753
 2 GB       1531
 3 IN       1463
 4 AU        974
 5 CA        924
 6 PH        649
 7 IT        277
 8 MY        247
 9 PK        222
10 DE        191
# … with 147 more rows
…
# remove individual items
sumscores <- plus_sumscores |> 
  select(id, country, extraversion:openness)

And now we have our final dataset:

sumscores

# A tibble: 14,294 × 7
# Rowwise:  id
      id country extraversion neuroticism agreeableness conscientiousn…¹ openn…²
   <int> <chr>          <dbl>       <dbl>         <dbl>            <dbl>   <dbl>
 1     1 US                32          19            32               31      31
 2     2 US                28          29            31               28      26
 3     3 US                26          32            40               26      22
 4     4 US                28          32            34               37      35
 5     5 US                32          25            37               30      29
 6     6 IN                35          19            31               30      30
 7     7 US                31          37            33               35      37
 8     8 US                29          33            27               32      33
 9     9 IN                32          28            37               34      34
10    10 US                30          29            32               33      31
# … with 14,284 more rows, and abbreviated variable names ¹​conscientiousness,
#   ²​openness
…
